{
    "10_0": 256,
    "10_1": 1707,
    "11_0": 2276,
    "11_1": "CBLPJZCU",
    "12_0": 10189,
    "12_1": 469671086427712,
    "13_0": 414,
    "13_1": 20183,
    "14_0": 532506,
    "14_1": 2595245,
    "15_0": 238,
    "15_1": 392,
    "16_0": "40921727",
    "16_1": "89950138",
    "17_0": 8408,
    "17_1": 1168948,
    "18_0": 4770,
    "18_1": 1578,
    "19_0": 131,
    "19_1": 15231022,
    "1_0": 3226488,
    "1_1": 4836845,
    "20_0": 684,
    "20_1": 7758,
    "21_0": 19350258,
    "21_1": 1142627861,
    "22_0": 2496,
    "22_1": 56894170832118,
    "23_0": 65183,
    "23_1": 19019,
    "24_0": 18375063,
    "24_1": 1959,
    "25_0": 4206594,
    "2_0": 3085697,
    "2_1": 9425,
    "3_0": 225,
    "3_1": 35194,
    "4_0": 1864,
    "4_1": 1258,
    "5_0": 2845163,
    "5_1": 9436229,
    "6_0": 314247,
    "6_1": 514,
    "7_0": 70597,
    "7_1": 30872528,
    "8_0": 2500,
    "9_0": 2671328082,
    "9_1": 59095
}