Case #1: 4000000
Case #2: 0
Case #3: 9450390
Case #4: 57898422
Case #5: 10119876
Case #6: 26048936
Case #7: 8664751
Case #8: 25772268
Case #9: 8980093
Case #10: 42433247
Case #11: 24199893
Case #12: 30464431
Case #13: 3801026
Case #14: 10715600
Case #15: 11967
Case #16: 219379
Case #17: 577459
Case #18: 21142
Case #19: 1960188
Case #20: 3428799
Case #21: 607495
Case #22: 4231085
Case #23: 67033506
Case #24: 68446350
Case #25: 0
Case #26: 0
Case #27: 0
Case #28: 22379598
Case #29: 15673238
Case #30: 28451612
Case #31: 32240819
Case #32: 0
Case #33: 0
Case #34: 0
Case #35: 0
Case #36: 0
Case #37: 0
Case #38: 0
Case #39: 0
Case #40: 0
Case #41: 0
Case #42: 0
Case #43: 0
Case #44: 0
Case #45: 0
Case #46: 5121
Case #47: 1342
Case #48: 2403
Case #49: 131
Case #50: 6965
Case #51: 6866
Case #52: 3261
Case #53: 1721
Case #54: 2035
Case #55: 1193
Case #56: 0
Case #57: 2680
Case #58: 8
Case #59: 195
Case #60: 449
Case #61: 0
Case #62: 0
Case #63: 9727
Case #64: 0
Case #65: 0
Case #66: 29674
Case #67: 436
Case #68: 227
Case #69: 165
Case #70: 4148
Case #71: 1568
Case #72: 0
Case #73: 833
Case #74: 0
Case #75: 1277
Case #76: 2284
Case #77: 590
Case #78: 0
Case #79: 2479
Case #80: 2202
Case #81: 1220
Case #82: 0
Case #83: 1952
Case #84: 0
Case #85: 1375
Case #86: 556
Case #87: 2739
Case #88: 13745
Case #89: 4495
Case #90: 6519
Case #91: 4490
Case #92: 0
Case #93: 263
Case #94: 68065
Case #95: 1369
Case #96: 555
Case #97: 0
Case #98: 0
Case #99: 176
Case #100: 2422
