Case #1: 0
Case #2: 0
Case #3: 0
Case #4: 0
Case #5: 0
Case #6: 0
Case #7: 0
Case #8: 0
Case #9: 0
Case #10: 0
Case #11: 0
Case #12: 0
Case #13: 0
Case #14: 0
Case #15: 0
Case #16: 0
Case #17: 0
Case #18: 0
Case #19: 0
Case #20: 0
Case #21: 0
Case #22: 0
Case #23: 0
Case #24: 0
Case #25: 0
Case #26: 0
Case #27: 0
Case #28: 0
Case #29: 0
Case #30: 0
Case #31: 0
Case #32: 0
Case #33: 0
Case #34: 0
Case #35: 0
Case #36: 0
Case #37: 0
Case #38: 0
Case #39: 0
Case #40: 0
Case #41: 0
Case #42: 0
Case #43: 0
Case #44: 0
Case #45: 0
Case #46: 0
Case #47: 0
Case #48: 0
Case #49: 0
Case #50: 0
Case #51: 0
Case #52: 0
Case #53: 0
Case #54: 0
Case #55: 0
Case #56: 0
Case #57: 0
Case #58: 0
Case #59: 0
Case #60: 0
Case #61: 0
Case #62: 0
Case #63: 0
Case #64: 0
Case #65: 0
Case #66: 0
Case #67: 0
Case #68: 0
Case #69: 0
Case #70: 0
Case #71: 0
Case #72: 0
Case #73: 0
Case #74: 0
Case #75: 0
Case #76: 0
Case #77: 0
Case #78: 0
Case #79: 0
Case #80: 0
Case #81: 0
Case #82: 0
Case #83: 0
Case #84: 0
Case #85: 0
Case #86: 0
Case #87: 0
Case #88: 0
Case #89: 0
Case #90: 0
Case #91: 0
Case #92: 0
Case #93: 0
Case #94: 0
Case #95: 0
Case #96: 0
Case #97: 0
Case #98: 0
Case #99: 0
Case #100: 0
Case #101: 0
Case #102: 0
Case #103: 0
Case #104: 0
Case #105: 0
Case #106: 0
Case #107: 0
Case #108: 0
Case #109: 0
Case #110: 0
Case #111: 0
Case #112: 0
Case #113: 0
Case #114: 0
Case #115: 0
Case #116: 0
Case #117: 0
Case #118: 0
Case #119: 0
Case #120: 0
Case #121: 0
Case #122: 0
Case #123: 0
Case #124: 0
Case #125: 0
Case #126: 0
Case #127: 0
Case #128: 0
Case #129: 0
Case #130: 0
Case #131: 0
Case #132: 0
Case #133: 0
Case #134: 0
Case #135: 0
Case #136: 0
Case #137: 0
Case #138: 0
Case #139: 0
Case #140: 0
Case #141: 0
Case #142: 0
Case #143: 0
Case #144: 0
Case #145: 0
Case #146: 0
Case #147: 0
Case #148: 0
Case #149: 0
Case #150: 0
Case #151: 0
Case #152: 0
Case #153: 0
Case #154: 0
Case #155: 0
Case #156: 0
Case #157: 0
Case #158: 0
Case #159: 0
Case #160: 0
Case #161: 0
Case #162: 0
Case #163: 0
Case #164: 0
Case #165: 0
Case #166: 0
Case #167: 0
Case #168: 0
Case #169: 0
Case #170: 0
Case #171: 0
Case #172: 0
Case #173: 0
Case #174: 0
Case #175: 0
Case #176: 0
Case #177: 0
Case #178: 0
Case #179: 0
Case #180: 0
Case #181: 0
Case #182: 0
Case #183: 0
Case #184: 0
Case #185: 0
Case #186: 0
Case #187: 0
Case #188: 0
Case #189: 0
Case #190: 0
Case #191: 0
Case #192: 0
Case #193: 0
Case #194: 0
Case #195: 0
Case #196: 0
Case #197: 0
Case #198: 0
Case #199: 0
Case #200: 0
Case #201: 0
Case #202: 0
Case #203: 0
Case #204: 0
Case #205: 0
Case #206: 0
Case #207: 0
Case #208: 0
Case #209: 0
Case #210: 0
Case #211: 0
Case #212: 0
Case #213: 0
Case #214: 0
Case #215: 0
Case #216: 0
Case #217: 0
Case #218: 0
Case #219: 0
Case #220: 0
Case #221: 0
Case #222: 0
Case #223: 0
Case #224: 0
Case #225: 0
Case #226: 0
Case #227: 0
Case #228: 0
Case #229: 0
Case #230: 0
Case #231: 0
Case #232: 0
Case #233: 0
Case #234: 0
Case #235: 0
Case #236: 0
Case #237: 0
Case #238: 0
Case #239: 0
Case #240: 0
Case #241: 0
Case #242: 0
Case #243: 0
Case #244: 0
Case #245: 0
Case #246: 0
Case #247: 0
Case #248: 0
Case #249: 0
Case #250: 0
Case #251: 0
Case #252: 0
Case #253: 0
Case #254: 0
Case #255: 0
Case #256: 0
Case #257: 0
Case #258: 0
Case #259: 0
Case #260: 0
Case #261: 0
Case #262: 0
Case #263: 0
Case #264: 0
Case #265: 0
Case #266: 0
Case #267: 0
Case #268: 0
Case #269: 0
Case #270: 0
Case #271: 0
Case #272: 0
Case #273: 0
Case #274: 0
Case #275: 0
Case #276: 0
Case #277: 0
Case #278: 0
Case #279: 0
Case #280: 0
Case #281: 0
Case #282: 0
Case #283: 0
Case #284: 0
Case #285: 0
Case #286: 0
Case #287: 0
Case #288: 0
Case #289: 0
Case #290: 0
Case #291: 0
Case #292: 0
Case #293: 0
Case #294: 0
Case #295: 0
Case #296: 0
Case #297: 0
Case #298: 0
Case #299: 0
Case #300: 0
Case #301: 0
Case #302: 0
Case #303: 0
Case #304: 0
Case #305: 0
Case #306: 0
Case #307: 0
Case #308: 0
Case #309: 0
Case #310: 0
Case #311: 0
Case #312: 0
Case #313: 0
Case #314: 0
Case #315: 0
Case #316: 0
Case #317: 0
Case #318: 0
Case #319: 0
Case #320: 0
Case #321: 0
Case #322: 0
Case #323: 0
Case #324: 0
Case #325: 0
Case #326: 0
Case #327: 0
Case #328: 0
Case #329: 0
Case #330: 0
Case #331: 0
Case #332: 0
Case #333: 0
Case #334: 0
Case #335: 0
Case #336: 0
Case #337: 0
Case #338: 0
Case #339: 0
Case #340: 0
Case #341: 0
Case #342: 0
Case #343: 0
Case #344: 0
Case #345: 0
Case #346: 0
Case #347: 0
Case #348: 0
Case #349: 0
Case #350: 0
Case #351: 0
Case #352: 0
Case #353: 0
Case #354: 0
Case #355: 0
Case #356: 0
Case #357: 0
Case #358: 0
Case #359: 0
Case #360: 0
Case #361: 0
Case #362: 0
Case #363: 0
Case #364: 0
Case #365: 0
Case #366: 0
Case #367: 0
Case #368: 0
Case #369: 0
Case #370: 0
Case #371: 0
Case #372: 0
Case #373: 0
Case #374: 0
Case #375: 0
Case #376: 0
Case #377: 0
Case #378: 0
Case #379: 0
Case #380: 0
Case #381: 0
Case #382: 0
Case #383: 0
Case #384: 0
Case #385: 0
Case #386: 0
Case #387: 0
Case #388: 0
Case #389: 0
Case #390: 0
Case #391: 0
Case #392: 0
Case #393: 0
Case #394: 0
Case #395: 0
Case #396: 0
Case #397: 0
Case #398: 0
Case #399: 0
Case #400: 0
Case #401: 0
Case #402: 0
Case #403: 0
Case #404: 0
Case #405: 0
Case #406: 0
Case #407: 0
Case #408: 0
Case #409: 0
Case #410: 0
Case #411: 0
Case #412: 0
Case #413: 0
Case #414: 0
Case #415: 0
Case #416: 0
Case #417: 0
Case #418: 0
Case #419: 0
Case #420: 0
Case #421: 0
Case #422: 0
Case #423: 0
Case #424: 0
Case #425: 0
Case #426: 0
Case #427: 0
Case #428: 0
Case #429: 0
Case #430: 0
Case #431: 0
Case #432: 0
Case #433: 0
Case #434: 0
Case #435: 0
Case #436: 0
Case #437: 0
Case #438: 0
Case #439: 0
Case #440: 0
Case #441: 0
Case #442: 0
Case #443: 0
Case #444: 0
Case #445: 0
Case #446: 0
Case #447: 0
Case #448: 0
Case #449: 0
Case #450: 0
Case #451: 0
Case #452: 0
Case #453: 0
Case #454: 0
Case #455: 0
Case #456: 0
Case #457: 0
Case #458: 0
Case #459: 0
Case #460: 0
Case #461: 0
Case #462: 0
Case #463: 0
Case #464: 0
Case #465: 0
Case #466: 0
Case #467: 0
Case #468: 0
Case #469: 0
Case #470: 0
Case #471: 0
Case #472: 0
Case #473: 0
Case #474: 0
Case #475: 0
Case #476: 0
Case #477: 0
Case #478: 0
Case #479: 0
Case #480: 0
Case #481: 0
Case #482: 0
Case #483: 0
Case #484: 0
Case #485: 0
Case #486: 0
Case #487: 0
Case #488: 0
Case #489: 0
Case #490: 0
Case #491: 0
Case #492: 0
Case #493: 0
Case #494: 0
Case #495: 0
Case #496: 0
Case #497: 0
Case #498: 0
Case #499: 0
Case #500: 0
Case #501: 0
Case #502: 0
Case #503: 0
Case #504: 0
Case #505: 0
Case #506: 0
Case #507: 0
Case #508: 0
Case #509: 0
Case #510: 0
Case #511: 0
Case #512: 0
Case #513: 0
Case #514: 0
Case #515: 0
Case #516: 0
Case #517: 0
Case #518: 0
Case #519: 0
Case #520: 0
Case #521: 0
Case #522: 0
Case #523: 0
Case #524: 0
Case #525: 0
Case #526: 0
Case #527: 0
Case #528: 0
Case #529: 0
Case #530: 0
Case #531: 0
Case #532: 0
Case #533: 0
Case #534: 0
Case #535: 0
Case #536: 0
Case #537: 0
Case #538: 0
Case #539: 0
Case #540: 0
Case #541: 0
Case #542: 0
Case #543: 0
Case #544: 0
Case #545: 0
Case #546: 0
Case #547: 0
Case #548: 0
Case #549: 0
Case #550: 0
Case #551: 0
Case #552: 0
Case #553: 0
Case #554: 0
Case #555: 0
Case #556: 0
Case #557: 0
Case #558: 0
Case #559: 0
Case #560: 0
Case #561: 0
Case #562: 0
Case #563: 0
Case #564: 0
Case #565: 0
Case #566: 0
Case #567: 0
Case #568: 0
Case #569: 0
Case #570: 0
Case #571: 0
Case #572: 0
Case #573: 0
Case #574: 0
Case #575: 0
Case #576: 0
Case #577: 0
Case #578: 0
Case #579: 0
Case #580: 0
Case #581: 0
Case #582: 0
Case #583: 0
Case #584: 0
Case #585: 0
Case #586: 0
Case #587: 0
Case #588: 0
Case #589: 0
Case #590: 0
Case #591: 0
Case #592: 0
Case #593: 0
Case #594: 0
Case #595: 0
Case #596: 0
Case #597: 0
Case #598: 0
Case #599: 0
Case #600: 0
Case #601: 0
Case #602: 0
Case #603: 0
Case #604: 0
Case #605: 0
Case #606: 0
Case #607: 0
Case #608: 0
Case #609: 0
Case #610: 0
Case #611: 0
Case #612: 0
Case #613: 0
Case #614: 0
Case #615: 0
Case #616: 0
Case #617: 0
Case #618: 0
Case #619: 0
Case #620: 0
Case #621: 0
Case #622: 0
Case #623: 0
Case #624: 0
Case #625: 0
Case #626: 0
Case #627: 0
Case #628: 0
Case #629: 0
Case #630: 0
Case #631: 0
Case #632: 0
Case #633: 0
Case #634: 0
Case #635: 0
Case #636: 0
Case #637: 0
Case #638: 0
Case #639: 0
Case #640: 0
Case #641: 0
Case #642: 0
Case #643: 0
Case #644: 0
Case #645: 0
Case #646: 0
Case #647: 0
Case #648: 0
Case #649: 0
Case #650: 0
Case #651: 0
Case #652: 0
Case #653: 0
Case #654: 0
Case #655: 0
Case #656: 0
Case #657: 0
Case #658: 0
Case #659: 0
Case #660: 0
Case #661: 0
Case #662: 0
Case #663: 0
Case #664: 0
Case #665: 0
Case #666: 0
Case #667: 0
Case #668: 0
Case #669: 0
Case #670: 0
Case #671: 0
Case #672: 0
Case #673: 0
Case #674: 0
Case #675: 0
Case #676: 0
Case #677: 0
Case #678: 0
Case #679: 0
Case #680: 0
Case #681: 0
Case #682: 0
Case #683: 0
Case #684: 0
Case #685: 0
Case #686: 0
Case #687: 0
Case #688: 0
Case #689: 0
Case #690: 0
Case #691: 0
Case #692: 0
Case #693: 0
Case #694: 0
Case #695: 0
Case #696: 0
Case #697: 0
Case #698: 0
Case #699: 0
Case #700: 0
Case #701: 0
Case #702: 0
Case #703: 0
Case #704: 0
Case #705: 0
Case #706: 0
Case #707: 0
Case #708: 0
Case #709: 0
Case #710: 0
Case #711: 0
Case #712: 0
Case #713: 0
Case #714: 0
Case #715: 0
Case #716: 0
Case #717: 0
Case #718: 0
Case #719: 0
Case #720: 0
Case #721: 0
Case #722: 0
Case #723: 0
Case #724: 0
Case #725: 0
Case #726: 0
Case #727: 0
Case #728: 0
Case #729: 0
Case #730: 0
Case #731: 0
Case #732: 0
Case #733: 0
Case #734: 0
Case #735: 0
Case #736: 0
Case #737: 0
Case #738: 0
Case #739: 0
Case #740: 0
Case #741: 0
Case #742: 0
Case #743: 0
Case #744: 0
Case #745: 0
Case #746: 0
Case #747: 0
Case #748: 0
Case #749: 0
Case #750: 0
Case #751: 0
Case #752: 0
Case #753: 0
Case #754: 0
Case #755: 0
Case #756: 0
Case #757: 0
Case #758: 0
Case #759: 0
Case #760: 0
Case #761: 0
Case #762: 0
Case #763: 0
Case #764: 0
Case #765: 0
Case #766: 0
Case #767: 0
Case #768: 0
Case #769: 0
Case #770: 0
Case #771: 0
Case #772: 0
Case #773: 0
Case #774: 0
Case #775: 0
Case #776: 0
Case #777: 0
Case #778: 0
Case #779: 0
Case #780: 0
Case #781: 0
Case #782: 0
Case #783: 0
Case #784: 0
Case #785: 0
Case #786: 0
Case #787: 0
Case #788: 0
Case #789: 0
Case #790: 0
Case #791: 0
Case #792: 0
Case #793: 0
Case #794: 0
Case #795: 0
Case #796: 0
Case #797: 0
Case #798: 0
Case #799: 0
Case #800: 0
Case #801: 0
Case #802: 0
Case #803: 0
Case #804: 0
Case #805: 0
Case #806: 0
Case #807: 0
Case #808: 0
Case #809: 0
Case #810: 0
Case #811: 0
Case #812: 0
Case #813: 0
Case #814: 0
Case #815: 0
Case #816: 0
Case #817: 0
Case #818: 0
Case #819: 0
Case #820: 0
Case #821: 0
Case #822: 0
Case #823: 0
Case #824: 0
Case #825: 0
Case #826: 0
Case #827: 0
Case #828: 0
Case #829: 0
Case #830: 0
Case #831: 0
Case #832: 0
Case #833: 0
Case #834: 0
Case #835: 0
Case #836: 0
Case #837: 0
Case #838: 0
Case #839: 0
Case #840: 0
Case #841: 0
Case #842: 0
Case #843: 0
Case #844: 0
Case #845: 0
Case #846: 0
Case #847: 0
Case #848: 0
Case #849: 0
Case #850: 0
Case #851: 0
Case #852: 0
Case #853: 0
Case #854: 0
Case #855: 0
Case #856: 0
Case #857: 0
Case #858: 0
Case #859: 0
Case #860: 0
Case #861: 0
Case #862: 0
Case #863: 0
Case #864: 0
Case #865: 0
Case #866: 0
Case #867: 0
Case #868: 0
Case #869: 0
Case #870: 0
Case #871: 0
Case #872: 0
Case #873: 0
Case #874: 0
Case #875: 0
Case #876: 0
Case #877: 0
Case #878: 0
Case #879: 0
Case #880: 0
Case #881: 0
Case #882: 0
Case #883: 0
Case #884: 0
Case #885: 0
Case #886: 0
Case #887: 0
Case #888: 0
Case #889: 0
Case #890: 0
Case #891: 0
Case #892: 0
Case #893: 0
Case #894: 0
Case #895: 0
Case #896: 0
Case #897: 0
Case #898: 0
Case #899: 0
Case #900: 0
Case #901: 0
Case #902: 0
Case #903: 0
Case #904: 0
Case #905: 0
Case #906: 0
Case #907: 0
Case #908: 0
Case #909: 0
Case #910: 0
Case #911: 0
Case #912: 0
Case #913: 0
Case #914: 0
Case #915: 0
Case #916: 0
Case #917: 0
Case #918: 0
Case #919: 0
Case #920: 0
Case #921: 0
Case #922: 0
Case #923: 0
Case #924: 0
Case #925: 0
Case #926: 0
Case #927: 0
Case #928: 0
Case #929: 0
Case #930: 0
Case #931: 0
Case #932: 0
Case #933: 0
Case #934: 0
Case #935: 0
Case #936: 0
Case #937: 0
Case #938: 0
Case #939: 0
Case #940: 0
Case #941: 0
Case #942: 0
Case #943: 0
Case #944: 0
Case #945: 0
Case #946: 0
Case #947: 0
Case #948: 0
Case #949: 0
Case #950: 0
Case #951: 0
Case #952: 0
Case #953: 0
Case #954: 0
Case #955: 0
Case #956: 0
Case #957: 0
Case #958: 0
Case #959: 0
Case #960: 0
Case #961: 0
Case #962: 0
Case #963: 0
Case #964: 0
Case #965: 0
Case #966: 0
Case #967: 0
Case #968: 0
Case #969: 0
Case #970: 0
Case #971: 0
Case #972: 0
Case #973: 0
Case #974: 0
Case #975: 0
Case #976: 0
Case #977: 0
Case #978: 0
Case #979: 0
Case #980: 0
Case #981: 0
Case #982: 0
Case #983: 0
Case #984: 0
Case #985: 0
Case #986: 0
Case #987: 0
Case #988: 0
Case #989: 0
Case #990: 0
Case #991: 0
Case #992: 0
Case #993: 0
Case #994: 0
Case #995: 0
Case #996: 0
Case #997: 0
Case #998: 0
Case #999: 0
Case #1000: 0
