Case #1: PR
Case #2: IMPOSSIBLE
Case #3: PSRS
Case #4: IMPOSSIBLE
Case #5: PRPS
Case #6: IMPOSSIBLE
Case #7: IMPOSSIBLE
Case #8: IMPOSSIBLE
Case #9: IMPOSSIBLE
Case #10: IMPOSSIBLE
Case #11: IMPOSSIBLE
Case #12: IMPOSSIBLE
Case #13: PRPSPSRS
Case #14: IMPOSSIBLE
Case #15: PS
Case #16: IMPOSSIBLE
Case #17: PRRS
Case #18: IMPOSSIBLE
Case #19: IMPOSSIBLE
Case #20: IMPOSSIBLE
Case #21: PRRSPSRS
Case #22: IMPOSSIBLE
Case #23: IMPOSSIBLE
Case #24: RS
Case #25: PRPSPRRS
