Case #1: 1000110003100051000210004
Case #2: 16197270633005540067515805585463653732127805390914
Case #3: 10867199561129214400124231459227623295543358533928352623733240719416774229146370473814739147909495575001352998535205481655068552615604756326598916011063591650146610267699788478138181590818588534687223921639342893559963329667199352
Case #4: 16270214651979921865240802435826051335613431234475352533558537788383774009942261430224310744097468064711947569505085099952150540075560563509649326535968343708877170471756778687848283900851018748487529884958933190218932289738598626
Case #5: 1398524159245553560141642427414358747156505254007554755258945956960976644876599366536735408461384861861988717093218
Case #6: 1321459347140331786839616861971942827859178883311739528244872716745380584565395283796871589563023450668251808798309
Case #7: 156252213132557402554158142970472275117265425671526798873097768137816689681915289310693886948199634698145
Case #8: 1086710891112241786517951210422148322237387203879139306416144409548207491824944152047528755291453058547075522056199605156265265724659926654376074764938211682512886548880389822913409693399846
Case #9: 10001100021000410003
Case #10: 2503240240747435390354392637739012091159
Case #11: 10418129001351711730131981546716923180712143522662231652501827070306283232133034334283722139817414934509748971497545440855422567855882264952655256557566559671747119571705737707429276670796448266489868925049279694662956859783498794
Case #12: 172203299535787242182822546781461094704450312522275554758801592496942570397711527118971591764569067093704
Case #13: 12987164051514823545274793214424155255332765528640311803490937478317394079842663431214709473722487019884661635461024762464481783438758489278985685802666082
Case #14: 1467026715149732866235629364164456846226482317321975158753217612984376856268946897072
Case #15: 18170608503903419985532074650154125404446206269376734198609090780
Case #16: 1008612896125092720427310344581849623949348182099625516367943839145121581384686261114841852912966364841428078990059937889392394764
Case #17: 1064714374246011591211312176395356021492201454448738234582847183516959139821866619781296683253557288122246789969900826463475154934588177058571185880037060048502870516993589120177495848371681779028848390382874759531697196548217232897414897959349493120
Case #18: 106912406430267951151633652957221915491056298
Case #19: 1000110002100031000510004
Case #20: 10851123781220116030179981880822420240982547727385277952902333502428704448745014480824999552400559785775759078631996753269972711977237172785730697735878244811938262285861873479116396932
Case #21: 10807648253460987174
Case #22: 1059912037128341458717662195112122327989291852969334944353613617536572382874155941978439084481747398482384926350647512465320355236570996067260913622526465265446666516817271263730637621378725787387884981064820438286886181889278995690572943259879499581
Case #23: 22870241102915634921629557479987651
Case #24: 135193577618355191732920636223337544279145344462284741966966723567555787268690208346785610974216597584285
Case #25: 1000110003100041000210006100081000510007
Case #26: 1464027645201883502553314540855561457548667087723496609
Case #27: 1095328444500122965136642
Case #28: 1078811757217963053531932383524494547268497425599259753609546501771846725618244583102840088451186784877728918897653
Case #29: 1000110002100031000410005100061000710008100091001010011100121001310014100151001610017100181001910020100211002210023100241002510026100271002810029100301003110032100331003410035100361003710038100391004010041100421004310044100451004610047100481004910050
Case #30: 107131578915905178932292323948290342924535004352543762841961430404815951078511455467359501629736358268012681116816371139742047429577688810099434194509
Case #31: 25480280703083731640553256564774331866908902190929949879873799958
Case #32: 13810515556474079221
Case #33: 106091073113956152592391728437327623872041858422264265746826473435333853470542395577558118585505903062400630366711872777763267981680182816898533685341929559440699528
Case #34: 11170118071831418721189562186322885243562604631263336703382534548354224575046321476995043853950557815598157967598806144766365664696693668289683157006571691717437205678324790458129882692861518705188144886269452294573955099726197335
Case #35: 10679168991829323283246602540627253274052744028376285872968929907306983906561957633996352569802711067287573574745637617980830820228314184938850308987591481915529332393591939789777698818
Case #36: 100011000210003100061000410005
Case #37: 107812534115007179091791227058299163812638417390574451946553322205154752681451905713558644600666352166405671076733167434680317065871235753217900180864868119223692284928959303794562964509740698866
Case #38: 8594197533
Case #39: 214948135939610
Case #40: 10226240221815825117296993349734731349703824638639414144336644299447015058250852513075362053747539865675757983586595901163718669686739870091709617317176844772647731077556831888383684177861828701887542936969372097012
Case #41: 11341122131483917006176911976321736258832747327926279372901331625329363841739331406444202844939462205017950957515785209354779583015923959595606536099265428659926881470375718047193573945769677908680550806688392584936856318641687304875239194896235
Case #42: 1000110002
Case #43: 1017828296286554450858408601527528362110573926952978014805518135982731842358746690882941917973982546
Case #44: 1261918003188892189922895204982557127552278992907334196403384205442254407564270444449453034561646156598056393472141646607381847956720987442575955829718529686003860308259693604775559335694426943829517198221
Case #45: 102707492624904251522699846440171243466526715409502281651306185584752052287512564589840785588938435087997572199551869386460479214989387943189619583851
Case #46: 1049515247156761614018735192811954720176262843322636034391114063443022462374819249150496865225552281523925299155480559755801159550603386344667242707087770684658847878751990001935289635497908
Case #47: 115491598028440327754160041525785419653949872
Case #48: 1063117363242022538133533286761648717869332122920519987163513433554630296051395022347239214900456980644756935457868784658073782643670508334985076878878819991295918379263662941
Case #49: 22742285313959839218442614735749789515545285857218690385813176147597706713270355763957705491850
Case #50: 100011000210003100051000410006
Case #51: 100011000210003100051000410006
Case #52: 11649235003770740391446245285154047580155851266149666186705567373719537350573648749657567277394778669142295275
Case #53: 14482310424267453730559636125079669858498660795231
Case #54: 100002000010001
Case #55: 3147456981570658217685222
Case #56: 109671106614399173731918621076211062236922571225942300026069294133547441142453335232652744605026123961692624937110571372730747455578489839918520385521866069371694579951139699197025977909851298686
Case #57: 1399447456629045572972965686959248293210
Case #58: 1610824509395904073843915459674865151426521915630862678696877171173393764098268184295843249264495127
Case #59: 1023617301111731825531344371143725434997379213924039248396134002140084484824848953974543245736757997600737097772577743267922079322834978528985592922919280392975981409923999584
Case #60: 11131144483610449881424814650450775577016216262713638706405964859656536647667670853849075396988
Case #61: 1647418605198002347627081293341688832932344993647137303381263825141218470895050952347531675364453646543275451358490597726285063336641786634767194673056926669738736617375475402798908158484370851728544386628870338729988961909909117797087
Case #62: 13566190752231623934272743049639025420556298475818780669233394034
Case #63: 1008015010159632176415193228621873523832243623178254171262974742938061422535576434070440826222768368716386239979503743328528379511606327548287560854708785140663924719438396116
Case #64: 101201220615781184602470629053438724398444918459664780354491547905813459885637086509465192740388566590945949319594297599
Case #65: 10001
Case #66: 10721223362899931933340773593939796449285334554845549345557558112599636434871294716807574779938810478111682392837748736888385935679699999651
Case #67: 1148915021140741574620483209792840834176213973120729651355254172046387470454785961545790978045082906859718600086423860119006387694914509711497779
Case #68: 615108146977701
Case #69: 1830120689216081857323696198792502226280316423291435576364533943940589460914957649688496915278456072583916308763732663846951671482716687272173152759557879780171828278926790875917169233792838950299687199888
Case #70: 86972
Case #71: 1109936631211022889813872573583883762539375895597570393732177733679870699127844668537634259391668902
Case #72: 10128110051363014350195081559016375207862199822361288113005130976333023343035523365633759644822472654770047773481545692258915590595962863535635446556467182691307066774321747327558776864787187994882348872249145497122972229784498760
Case #73: 18484745203913770918
Case #74: 1004510526112391372717465177952496325096263432852128795304613214437623403744288546992488494910352894549005567258696731997737590216915659886599471
Case #75: 11203118951428715905181331895319106194961965224949273532763027764288673362734847372743970943897442674588449149504115424955953566306767367957693177069573637742607548375840782878443684607867278819590001911479211799608
Case #76: 125201285114049169721760019761193352321228257293283140733674393374021940693413984529448441485754871450139523806035666024667506869873388783758242484500846118676486980887159042490837915749412297346
Case #77: 181652456630039611416378164481663826773673706855618807788934
Case #78: 10001100021000310004
Case #79: 1249227165423652648640308313164988852691437385453213578375655048955941672176673654581831513703683725721541607078807691318447986175723347244272656892067897542433938628772867997731418394599701
Case #80: 2315242209
Case #81: 107491094323958120952482927506303434914750369569875896861569623366484567167699127292476049772198015580700826268745689496897859007197317
Case #82: 275509011658445
Case #83: 25985476824508856980828748770796333
Case #84: 104654655435923353044736032956495203591334402505335259254680549136199161903722963562365879
Case #85: 100011000210003100041000510006
Case #86: 10223209441054519663243182432520184299272722430773339943654337348411164281844475445084478945223452814690755460564746191662202732657792182454829268481185723887018877088847914859224796523970939720399718
Case #87: 13444171881498815256247461673428649283282278825780296193052213862308983491835711486224876659917644007823655258755914800466951797988009582520858058955296068928789691796938933649707197354
Case #88: 21108230743039431581278243087732159377134603647241577486224763105631296382066532668586723472445785898616890341916769287599589
Case #89: 2194448563755917646283050229405749291528760359302896230
Case #90: 111291370613856141491503820716211672210022836232952352123759250052608926375265032700233856349123888940227434574431944572471745466155071555316038460408629756297964882649516842068814715817528277927813408504785830858838709488383891059277896531
Case #91: 13073144972286923053252643598139067408264223244747534095464956290564445645957641605496652667050808868466685433913979508999155
Case #92: 1375923006228131437928709346563504535318361833865841101418584345144356447674542946161492505108252129582665978060226635216369867009695236974772982738817588976147779808239186090888569158892607946229555696387968279938099790
Case #93: 13495161701897124897281553770138441401844091741508424044293744314444374636649206493594991361706633666397365679762447840681441838928705787160951259635998095
Case #94: 174997833220464661917361858531817557134382456598418728095672
Case #95: 1000110003100041000210006100081000510007
Case #96: 1095328444366422965150012
Case #97: 1715624484275652817143871553798994591009
Case #98: 18314307603594349432578665821063302322058232188767
Case #99: 2005423432282522832842941533793019254099549596300864152669637559489167892668958799930
Case #100: 11848139431619316775198962031122212247832797028034300143221432521346363541837594377933805943246447514564146013468484985449983526225264254029548495522656234591625962961010622826440969344699977002773134754147551178847804168525986585933719565597415
