Case #1: 185.2159763
Case #2: 35.6508443
Case #3: 839.3193228
Case #4: 791.5775178
Case #5: 410.5203298
Case #6: 838.9280633
Case #7: 779.8349794
Case #8: 556.5875000
Case #9: 243.0000000
Case #10: 181.0000000
Case #11: 792.2733849
Case #12: 339.9619048
Case #13: 2.9571383
Case #14: 864.4031150
Case #15: 446.7142983
Case #16: 833.4534427
Case #17: 42.7456894
Case #18: 407.5666667
Case #19: 403.6173118
Case #20: 874.3188693
Case #21: 280.0000000
Case #22: 820.7305194
Case #23: 241.2628418
Case #24: 259.1373414
Case #25: 340.1958850
Case #26: 830.5174219
Case #27: 20.0000000
Case #28: 457.8780991
Case #29: 576.5195321
Case #30: 0.8265062
Case #31: 796.1300393
Case #32: 828.6019435
Case #33: 158.5013798
Case #34: 331.7633816
Case #35: 454.9545455
Case #36: 44.5000000
Case #37: 474.7717725
Case #38: 545.6322075
Case #39: 841.3291119
Case #40: 58.3330552
Case #41: 828.8923408
Case #42: 865.5129627
Case #43: 304.2823781
Case #44: 807.5966267
Case #45: 873.3726229
Case #46: 3.3956720
Case #47: 207.4166667
Case #48: 356.6700000
Case #49: 305.0000000
Case #50: 434.1419956
Case #51: 885.0575833
Case #52: 210.5000000
Case #53: 387.3332357
Case #54: 782.7849352
Case #55: 802.7020617
Case #56: 239.7794250
Case #57: 29.1907023
Case #58: 883.2419365
Case #59: 58.2906573
Case #60: 647.7766857
Case #61: 846.0672012
Case #62: 299.3922294
Case #63: 844.8711958
Case #64: 511.4300179
Case #65: 0.5000000
Case #66: 820.3986232
Case #67: 5.1798171
Case #68: 32.0536729
Case #69: 21.2190530
Case #70: 250.5315545
Case #71: 844.7294609
Case #72: 865.5625395
Case #73: 795.8589270
Case #74: 823.8633547
Case #75: 236.6012077
Case #76: 478.1503591
Case #77: 431.1666667
Case #78: 360.5928571
Case #79: 55.9450000
Case #80: 191.0000000
Case #81: 230.5000000
Case #82: 180.1125000
Case #83: 3.2213752
Case #84: 250.5000000
Case #85: 885.3019860
Case #86: 859.6667422
Case #87: 133.0000000
Case #88: 795.2273581
Case #89: 144.4326299
Case #90: 220.0000000
Case #91: 3.2187489
Case #92: 63.8267683
Case #93: 783.3553602
Case #94: 468.4050503
Case #95: 788.2137862
Case #96: 153.9768846
Case #97: 881.7686616
Case #98: 123.6982861
Case #99: 125.9691594
Case #100: 845.5253125
